<?xml version="1.0" encoding="utf-8"?>
<!-- Generator: Adobe Illustrator 18.1.1, SVG Export Plug-In . SVG Version: 6.00 Build 0)  -->
<svg version="1.1" id="Layer_1" xmlns="http://www.w3.org/2000/svg" xmlns:xlink="http://www.w3.org/1999/xlink" x="0px" y="0px"
	 viewBox="0 0 142 27" enable-background="new 0 0 142 27" xml:space="preserve">
<g>
	<g>
		<path fill="#CECCCC" d="M142,24c0,1.7-1.3,3-3,3H4c-1.7,0-3-1.3-3-3V4c0-1.7,1.3-3,3-3h135c1.7,0,3,1.3,3,3V24z"/>
	</g>
	<path fill="#919191" d="M138.5,27H3.5C1.6,27,0,25.4,0,23.5v-20C0,1.6,1.6,0,3.5,0h135c1.9,0,3.5,1.6,3.5,3.5v20
		C142,25.4,140.4,27,138.5,27z M3.5,1C2.1,1,1,2.1,1,3.5v20C1,24.9,2.1,26,3.5,26h135c1.4,0,2.5-1.1,2.5-2.5v-20
		c0-1.4-1.1-2.5-2.5-2.5H3.5z"/>
</g>
<g>
	<g>
		<path fill="#535353" d="M51.4,17.6V8.1c0-0.1,0.1-0.2,0.2-0.3c0.1-0.1,0.3-0.1,0.4-0.1c0.2,0,0.3,0,0.4,0.1
			c0.1,0.1,0.2,0.2,0.2,0.3v8.8h3.8c0.1,0,0.2,0.1,0.3,0.2c0.1,0.1,0.1,0.2,0.1,0.4c0,0.1,0,0.3-0.1,0.4S56.5,18,56.4,18h-4.5
			c-0.1,0-0.3,0-0.4-0.1C51.4,17.8,51.4,17.7,51.4,17.6z"/>
		<path fill="#535353" d="M57.6,15v-4.2c0-1.1,0.3-1.8,0.8-2.3C59,8,59.7,7.7,60.6,7.7c0.9,0,1.6,0.2,2.2,0.7s0.8,1.3,0.8,2.3V15
			c0,1.1-0.3,1.8-0.8,2.3c-0.6,0.5-1.3,0.7-2.2,0.7c-0.9,0-1.6-0.2-2.2-0.7C57.9,16.8,57.6,16.1,57.6,15z M58.8,15
			c0,1.3,0.6,2,1.8,2c0.6,0,1-0.2,1.4-0.5c0.3-0.3,0.5-0.8,0.5-1.5v-4.2c0-0.7-0.2-1.2-0.5-1.5c-0.3-0.3-0.8-0.5-1.4-0.5
			c-1.2,0-1.8,0.7-1.8,2V15z"/>
		<path fill="#535353" d="M64.8,8.2c0-0.1,0.1-0.2,0.2-0.3c0.2-0.1,0.3-0.1,0.5-0.1c0.2,0,0.4,0.1,0.4,0.3l2.4,8.3l1.3-5.1
			c0.1-0.2,0.3-0.4,0.6-0.4c0.3,0,0.5,0.1,0.6,0.4l1.3,5.1L74.5,8c0.1-0.2,0.2-0.3,0.5-0.3c0.2,0,0.3,0,0.5,0.1s0.2,0.2,0.2,0.3
			c0,0.1,0,0.1,0,0.1l-2.8,9.3c-0.1,0.3-0.3,0.4-0.7,0.4c-0.4,0-0.7-0.1-0.7-0.4L70.3,13L69,17.7c-0.1,0.3-0.3,0.4-0.7,0.4
			c-0.4,0-0.6-0.1-0.7-0.4l-2.8-9.3C64.8,8.3,64.8,8.2,64.8,8.2z"/>
		<path fill="#535353" d="M76.9,17.6V8.2c0-0.1,0.1-0.2,0.2-0.3c0.1-0.1,0.2-0.1,0.4-0.1h5c0.1,0,0.2,0.1,0.3,0.2s0.1,0.2,0.1,0.4
			c0,0.1,0,0.3-0.1,0.4c-0.1,0.1-0.2,0.2-0.3,0.2h-4.3v3.6h2.2c0.1,0,0.2,0,0.3,0.1c0.1,0.1,0.1,0.2,0.1,0.4c0,0.1,0,0.2-0.1,0.3
			c-0.1,0.1-0.2,0.1-0.3,0.1h-2.2v3.6h4.3c0.1,0,0.2,0.1,0.3,0.2c0.1,0.1,0.1,0.2,0.1,0.4c0,0.1,0,0.3-0.1,0.4
			c-0.1,0.1-0.2,0.2-0.3,0.2h-5c-0.1,0-0.3,0-0.4-0.1C77,17.8,76.9,17.7,76.9,17.6z"/>
		<path fill="#535353" d="M84.1,17.6V8.1c0-0.1,0-0.2,0.1-0.3c0.1-0.1,0.2-0.1,0.3-0.1h2.6c0.9,0,1.7,0.2,2.3,0.7s0.9,1.2,0.9,2.1
			c0,1.5-0.7,2.4-2.1,2.7l2.1,3.9c0,0.1,0.1,0.1,0.1,0.2c0,0.1-0.1,0.3-0.2,0.4S89.7,18,89.6,18c-0.2,0-0.4-0.2-0.5-0.5l-2.1-4.1
			h-1.6v4.1c0,0.1-0.1,0.2-0.2,0.3C85,17.9,84.9,18,84.7,18c-0.2,0-0.3,0-0.4-0.1C84.2,17.8,84.1,17.7,84.1,17.6z M85.3,12.5h1.8
			c1.3,0,1.9-0.6,1.9-1.8c0-1.2-0.6-1.8-1.9-1.8h-1.8V12.5z"/>
	</g>
</g>
</svg>
