<?xml version="1.0" encoding="utf-8"?>
<!-- Generator: Adobe Illustrator 18.1.1, SVG Export Plug-In . SVG Version: 6.00 Build 0)  -->
<svg version="1.1" id="Layer_1" xmlns="http://www.w3.org/2000/svg" xmlns:xlink="http://www.w3.org/1999/xlink" x="0px" y="0px"
	 viewBox="0 0 1920 1080" enable-background="new 0 0 1920 1080" xml:space="preserve">
<g>
	<path fill="none" stroke="#919191" stroke-miterlimit="10" d="M1093.9,548.2c0,1.7-1.3,3-3,3l-140.7,0.5c-1.6,0-3-1.3-3-3l-0.1-17
		c0-1.6,1.3-3,3-3l140.7-0.5c1.7,0,3,1.3,3,3L1093.9,548.2z"/>
</g>
<g>
	<path fill="#CDCCCC" d="M1009.8,545.8c0,1.7-1.3,3-3,3h-54.4c-1.6,0-3-1.3-3-3v-11.6c0-1.6,1.4-3,3-3h54.4c1.7,0,3,1.4,3,3V545.8z"
		/>
</g>
<rect x="933.1" y="533.9" fill="none" width="91" height="12"/>
<text transform="matrix(1 0 0 1 970.6367 544.564)" fill="#525252" font-family="'Dosis-Medium'" font-size="14">ON</text>
<rect x="1015.3" y="533.9" fill="none" width="91" height="12"/>
<text transform="matrix(1 0 0 1 1050.0364 544.606)" fill="#BCBCBC" font-family="'Dosis-Regular'" font-size="14">OFF</text>
</svg>
